<?xml version="1.0" encoding="UTF-8" ?>
<!DOCTYPE svg PUBLIC "-//W3C//DTD SVG 1.1//EN" "http://www.w3.org/Graphics/SVG/1.1/DTD/svg11.dtd">
<svg width="596pt" height="410pt" viewBox="0 0 596 410" version="1.1" xmlns="http://www.w3.org/2000/svg">
<g id="#3187b5ff">
<path fill="#3187b5" opacity="1.00" d=" M 102.74 0.00 L 554.24 0.00 C 564.30 2.36 574.29 6.88 581.27 14.72 C 589.12 21.70 593.64 31.70 596.00 41.77 L 596.00 310.28 C 593.44 321.24 586.75 331.11 577.35 337.32 C 573.07 339.67 568.56 341.69 563.80 342.80 C 556.75 343.58 549.59 342.23 542.59 343.57 C 538.43 344.30 534.19 343.96 530.00 344.00 C 407.33 344.00 284.65 343.99 161.97 344.01 C 157.99 344.26 155.17 340.93 152.78 338.22 C 150.48 335.70 150.91 332.12 150.95 328.99 C 150.76 325.00 154.05 322.17 156.78 319.79 C 159.88 317.04 164.26 318.21 168.01 317.98 C 270.35 318.03 372.70 317.97 475.04 318.01 C 478.71 317.98 482.28 316.83 485.97 316.97 C 503.63 317.10 521.31 316.85 538.98 317.09 C 546.27 318.39 554.00 318.69 561.04 316.03 C 566.56 313.84 569.92 308.19 570.49 302.45 C 571.54 294.35 571.18 286.09 570.03 278.03 C 569.96 231.02 570.03 184.01 570.00 137.00 C 409.00 137.00 248.00 137.00 87.00 137.00 C 87.01 155.68 86.97 174.36 87.03 193.04 C 87.43 197.51 84.29 201.46 80.66 203.67 C 77.58 205.72 73.65 205.07 70.17 204.88 C 65.17 203.37 60.58 198.54 60.97 193.04 C 61.05 144.35 60.97 95.66 61.01 46.97 C 62.39 30.76 71.60 15.04 85.79 6.79 C 90.92 3.37 96.96 1.92 102.74 0.00 M 89.07 42.07 C 87.88 46.27 86.82 50.60 86.97 55.00 C 87.09 63.96 86.90 72.92 87.04 81.88 C 86.91 83.44 88.68 84.24 90.02 84.00 C 250.01 84.00 410.01 84.00 570.00 84.00 C 570.01 72.65 569.97 61.31 570.03 49.97 C 569.63 37.72 559.20 26.99 547.02 26.00 C 401.34 26.00 255.66 26.01 109.98 25.99 C 100.78 27.01 92.64 33.62 89.07 42.07 Z" />
<path fill="#3187b5" opacity="1.00" d=" M 71.31 226.36 C 84.91 226.25 98.44 231.32 108.63 240.33 C 122.08 251.90 129.98 269.42 130.48 287.09 C 130.66 298.74 130.32 310.40 130.62 322.04 C 133.02 329.47 135.15 337.09 134.99 344.99 C 135.53 362.82 127.58 380.46 114.39 392.36 C 101.74 403.93 84.19 409.95 67.10 408.38 C 49.21 407.35 32.16 397.78 21.50 383.45 C 9.01 367.25 5.56 344.65 12.42 325.41 C 13.75 321.75 13.04 317.80 13.19 314.00 C 13.28 304.30 13.02 294.60 13.32 284.90 C 14.16 270.71 19.82 256.83 29.17 246.11 C 39.69 234.10 55.22 226.38 71.31 226.36 M 64.11 257.08 C 49.55 260.97 39.66 276.30 40.87 291.11 C 50.47 286.16 61.11 282.81 72.00 283.25 C 82.83 282.77 93.35 286.19 102.92 290.99 C 103.47 279.58 98.20 267.79 88.63 261.34 C 81.63 256.36 72.37 254.72 64.11 257.08 M 60.48 311.54 C 54.94 315.78 51.63 323.08 52.96 330.05 C 53.67 335.58 57.62 339.98 61.97 343.15 C 62.15 353.45 61.85 363.77 62.10 374.07 C 62.14 379.27 66.62 384.27 71.99 384.04 C 77.39 384.37 81.84 379.25 81.90 374.07 C 82.13 363.75 81.87 353.42 82.02 343.10 C 86.45 340.01 90.26 335.55 91.04 330.04 C 92.76 321.07 86.83 311.57 78.21 308.80 C 72.32 306.57 65.49 307.88 60.48 311.54 Z" />
<path fill="#3187b5" opacity="1.00" d=" M 448.00 240.00 C 484.00 240.00 520.00 240.00 556.00 240.00 C 556.00 260.00 556.00 280.00 556.00 300.00 C 520.00 300.00 484.00 300.00 448.00 300.00 C 448.00 280.00 448.00 260.00 448.00 240.00 Z" />
</g>
</svg>
