<?xml version="1.0" encoding="UTF-8" ?>
<!DOCTYPE svg PUBLIC "-//W3C//DTD SVG 1.1//EN" "http://www.w3.org/Graphics/SVG/1.1/DTD/svg11.dtd">
<svg width="593pt" height="358pt" viewBox="0 0 593 358" version="1.1" xmlns="http://www.w3.org/2000/svg">
<g id="#3187b5ff">
<path fill="#3187b5" opacity="1.00" d=" M 253.23 11.00 C 259.23 9.15 265.79 9.90 272.00 8.92 C 277.34 8.11 282.63 9.49 287.97 9.52 C 292.40 10.00 296.88 10.36 301.22 11.46 C 299.93 23.54 304.83 36.17 314.48 43.69 C 320.77 48.95 329.00 51.35 337.11 51.38 C 347.38 50.89 357.36 46.08 363.96 38.15 C 377.05 47.44 388.18 59.27 397.71 72.14 C 389.53 78.88 383.99 89.21 384.28 99.95 C 383.68 115.46 395.12 130.43 410.07 134.33 C 414.33 135.66 418.80 135.47 423.20 135.71 C 425.21 151.51 425.40 167.66 422.52 183.36 C 405.66 181.48 388.15 193.23 384.46 209.93 C 380.83 222.86 386.01 237.29 395.97 246.01 C 386.71 259.11 375.07 270.45 362.10 279.86 C 356.16 272.60 347.48 267.54 338.06 266.73 C 325.14 265.37 311.77 271.79 304.71 282.68 C 300.83 289.02 298.43 296.40 299.17 303.90 C 299.53 306.71 295.79 306.21 294.02 306.45 C 283.17 308.13 272.15 307.55 261.22 307.23 C 260.84 307.09 260.48 306.90 260.14 306.67 C 257.12 306.56 254.10 306.29 251.16 305.58 C 252.23 295.57 249.04 285.13 242.18 277.70 C 235.56 269.80 225.18 265.68 214.99 265.77 C 205.03 266.60 194.75 270.78 188.62 278.95 C 187.51 278.73 186.42 278.37 185.57 277.60 C 173.64 268.35 162.59 257.67 154.15 245.11 C 163.30 238.51 168.35 227.15 168.21 216.00 C 167.53 206.06 163.19 196.02 155.23 189.80 C 147.74 183.41 137.57 180.83 127.86 181.70 C 125.94 165.75 125.49 149.48 128.49 133.63 C 136.06 134.43 143.89 133.26 150.57 129.48 C 161.46 123.54 169.23 111.63 168.83 99.04 C 169.26 87.86 163.57 77.19 155.11 70.12 C 164.71 57.29 176.19 45.90 189.16 36.48 C 192.92 39.84 196.10 43.91 200.71 46.24 C 212.20 52.73 227.35 51.90 238.07 44.19 C 248.79 37.04 254.57 23.73 253.23 11.00 M 263.10 75.97 C 236.63 79.68 212.59 96.98 200.63 120.88 C 192.35 137.17 189.55 156.22 193.06 174.18 C 196.88 194.60 208.73 213.32 225.40 225.70 C 239.32 236.19 256.61 242.04 274.01 242.41 C 293.66 242.86 313.36 236.03 328.56 223.57 C 343.56 211.47 354.11 193.98 357.81 175.07 C 361.13 158.52 359.19 140.98 352.40 125.52 C 344.45 107.13 329.63 91.85 311.54 83.27 C 296.60 75.98 279.50 73.73 263.10 75.97 Z" />
<path fill="#3187b5" opacity="1.00" d=" M 411.70 208.51 C 419.57 210.34 427.53 207.21 432.83 201.33 C 439.68 206.56 446.06 212.40 451.43 219.17 C 446.02 224.07 442.99 231.88 445.13 239.07 C 447.50 248.21 456.93 254.89 466.40 253.52 C 468.35 261.99 467.86 270.74 467.37 279.34 C 459.65 279.40 451.76 283.32 448.31 290.46 C 443.96 298.67 447.07 308.89 453.78 314.83 C 448.68 321.85 442.78 328.26 435.99 333.68 C 431.80 328.86 425.27 326.08 418.88 327.00 C 411.81 328.00 405.13 332.88 402.92 339.81 C 401.67 342.77 401.58 345.99 401.64 349.15 C 393.09 350.57 384.33 351.07 375.72 349.85 C 376.50 340.96 370.47 332.16 361.96 329.61 C 354.50 327.09 345.42 330.13 340.98 336.60 C 333.21 332.31 327.18 325.50 321.38 318.90 C 325.32 315.31 328.40 310.46 328.55 304.99 C 329.03 300.62 327.38 296.42 325.24 292.71 C 331.20 290.41 337.42 288.81 343.28 286.26 C 346.69 292.41 350.20 298.71 355.72 303.28 C 364.26 310.78 375.63 315.12 387.04 314.73 C 401.61 314.76 415.84 307.06 424.05 295.06 C 430.82 285.23 433.70 272.65 431.38 260.90 C 428.86 246.06 418.41 232.90 404.56 227.03 C 407.05 220.90 409.43 214.72 411.70 208.51 Z" />
</g>
</svg>
