<svg version="1.1" width="790.667" height="477.333" viewBox="0 0 593 358" xmlns="http://www.w3.org/2000/svg" xmlns:xlink="http://www.w3.org/1999/xlink" overflow="hidden"><style>
.MsftOfcThm_Background1_Fill {
 fill:#FFFFFF; 
}
</style>
<g id="#3187b5ff"><path d=" M 101.46 0 L 551.17 0 C 553.94 0.82 556.76 1.43 559.56 2.16 C 564.73 4.97 570.47 7.01 574.78 11.18 C 577.3 13.68 579.84 16.16 582.28 18.74 C 586.18 23 588.1 28.54 590.87 33.51 C 591.6 36.31 592.18 39.16 593 41.94 L 593 309.21 C 592.21 311.64 591.5 314.08 590.82 316.54 C 585.36 329.66 573.26 340.14 559 342.05 C 552.38 342.38 545.67 341.38 539.13 342.73 C 535.45 343.34 531.71 343.01 528.01 343.06 C 407.68 343.07 287.34 343.04 167.01 343.07 C 163.29 342.87 158.89 343.95 155.87 341.14 C 153.77 339.19 151.33 337.25 150.4 334.44 C 150.06 330.73 149.78 326.78 151.37 323.3 C 154.27 320.87 156.69 316.8 160.99 317.13 C 265 317.13 369.02 317.12 473.03 317.14 C 476.06 317.12 478.97 316.09 482 316.11 C 497.33 316.14 512.66 316.13 527.99 316.13 C 531.62 316.16 535.28 315.85 538.88 316.53 C 545.23 317.8 551.93 317.27 558.05 315.21 C 562.5 313.53 565.45 309.54 567.08 305.22 C 568.67 296.25 568.71 287.01 567.22 278.04 C 567.15 230.9 567.22 183.76 567.19 136.62 C 407 136.62 246.81 136.62 86.62 136.62 C 86.6 155.78 86.65 174.94 86.61 194.09 C 86.52 199.07 81.88 202.09 78.09 204.45 C 74.41 204.17 70.21 205.35 67 203.03 C 63.56 200.91 60.56 197.26 60.75 193.02 C 60.75 144.67 60.79 96.32 60.73 47.97 C 61.83 25.58 79.02 4.27 101.56 0.73 L 101.46 0 M 91.17 37.66 C 87.88 40.88 88.18 45.71 86.7 49.7 C 86.52 60.85 86.67 71.99 86.63 83.14 C 89.64 84.24 92.89 83.74 96.03 83.82 C 253.08 83.81 410.14 83.82 567.19 83.82 C 567.17 71.46 567.24 59.1 567.15 46.74 C 566.51 45.3 565.93 43.84 565.3 42.41 C 565.27 41.93 565.2 40.95 565.17 40.47 C 563.64 38.15 561.9 35.98 560.3 33.71 C 555.25 28.73 548.23 25.49 541.03 25.91 C 396.99 25.99 252.95 25.87 108.91 25.97 C 101.74 27.14 94.92 31.36 91.17 37.66 Z" stroke="none" stroke-width="1" stroke-dasharray="" stroke-dashoffset="1" fill="#FFFFFF" fill-opacity="1"/><path d=" M 53.19 220.6 C 61.31 219.12 69.67 217.33 77.88 219.23 C 82.4 219.26 86.65 220.76 91.01 221.72 C 94.85 223.29 98.76 224.74 102.42 226.72 C 110.18 230.49 116.41 236.58 122.33 242.72 C 135.14 257.12 140.96 277 139.15 296.09 C 137.93 302 136.83 307.96 134.72 313.65 C 132.03 321.22 127.48 327.95 122.41 334.12 C 119.37 338.49 114.84 341.4 110.81 344.76 C 101.48 351.95 90.09 355.84 78.63 358 L 60.81 358 C 55.67 356.66 50.44 355.66 45.46 353.8 C 34.8 350.18 25.66 343.08 18.11 334.87 C 11.04 327.84 6.98 318.52 3.23 309.45 C 1.98 304.67 1.19 299.78 0 294.99 L 0 282.2 C 0.93 279.94 0.97 277.49 1.34 275.11 C 3.54 264.47 8.12 254.36 14.64 245.67 C 20.37 238.45 27.58 232.61 35.32 227.66 C 40.86 224.37 47 222.31 53.19 220.6 M 64.03 237.18 C 57.81 237.42 51.78 239.51 46.18 242.11 C 44.6 243.24 42.95 244.28 41.19 245.13 C 39.47 246.16 38.03 247.62 36.25 248.57 C 26.49 257.16 20.01 269.43 18.43 282.32 C 17.79 286.4 17.24 290.97 18.77 294.9 C 18.75 298.92 20.1 302.73 21.14 306.56 C 23.48 310.65 24.91 315.3 28 318.92 C 32.7 325.67 39.36 330.71 46.37 334.84 C 53.33 337.41 60.46 340.38 68.03 340.09 C 71.57 339.92 75.26 340.6 78.64 339.26 C 87.89 338.05 96.7 333.81 103.58 327.54 C 106.29 324.43 109.89 322.04 111.85 318.35 C 113.44 316.13 114.96 313.87 116.38 311.54 C 117.19 309.09 118.02 306.63 119.31 304.38 C 119.39 302.97 119.56 301.57 120.29 300.34 C 120.43 298.61 120.28 296.75 121.4 295.29 C 121.93 285.94 121.32 276.38 117.27 267.78 C 116.53 266.48 115.84 265.15 115.17 263.82 C 114.95 263.31 114.51 262.28 114.29 261.77 C 108.53 251.71 99.1 243.95 88.24 239.96 C 84.59 238.29 80.62 237.09 76.57 237.37 C 76.2 237.12 75.46 236.61 75.1 236.36 C 71.45 236.75 67.41 235.46 64.03 237.18 Z" stroke="none" stroke-width="1" stroke-dasharray="" stroke-dashoffset="1" fill="#FFFFFF" fill-opacity="1"/><path d=" M 439 241 C 475.33 241 511.67 241 548 241 C 548 260.67 548 280.33 548 300 C 511.67 300 475.33 300 439 300 C 439 280.33 439 260.67 439 241 Z" stroke="none" stroke-width="1" stroke-dasharray="" stroke-dashoffset="1" fill="#FFFFFF" fill-opacity="1"/><path d=" M 62.68 255.34 C 67.66 255.3 72.64 255.32 77.62 255.32 C 77.62 263.96 77.62 272.61 77.62 281.25 C 85.91 281.25 94.2 281.26 102.49 281.25 C 102.5 285.89 102.5 290.53 102.49 295.18 C 94.2 295.18 85.91 295.18 77.63 295.18 C 77.65 303.79 77.55 312.41 77.68 321.02 C 72.69 321.21 67.69 321.09 62.7 321.11 C 62.69 312.47 62.69 303.83 62.69 295.19 C 54.09 295.17 45.49 295.19 36.89 295.18 C 36.89 290.53 36.85 285.88 36.92 281.23 C 45.49 281.32 54.06 281.17 62.62 281.31 C 62.78 272.66 62.66 264 62.68 255.34 Z" stroke="none" stroke-width="1" stroke-dasharray="" stroke-dashoffset="1" fill="#FFFFFF" fill-opacity="1"/></g></svg>