<?xml version="1.0" encoding="iso-8859-1"?>
<!-- Generator: Adobe Illustrator 19.0.0, SVG Export Plug-In . SVG Version: 6.00 Build 0)  -->
<svg xmlns="http://www.w3.org/2000/svg" xmlns:xlink="http://www.w3.org/1999/xlink" version="1.1" id="Capa_1" x="0px" y="0px" viewBox="0 0 240.835 240.835" style="enable-background:new 0 0 240.835 240.835;" xml:space="preserve" width="512px" height="512px">
<g>
	<path id="Expand_Less" d="M129.007,57.819c-4.68-4.68-12.499-4.68-17.191,0L3.555,165.803c-4.74,4.74-4.74,12.427,0,17.155   c4.74,4.74,12.439,4.74,17.179,0l99.683-99.406l99.671,99.418c4.752,4.74,12.439,4.74,17.191,0c4.74-4.74,4.74-12.427,0-17.155   L129.007,57.819z" fill="#006DF0"/>
	<g>
	</g>
	<g>
	</g>
	<g>
	</g>
	<g>
	</g>
	<g>
	</g>
	<g>
	</g>
</g>
<g>
</g>
<g>
</g>
<g>
</g>
<g>
</g>
<g>
</g>
<g>
</g>
<g>
</g>
<g>
</g>
<g>
</g>
<g>
</g>
<g>
</g>
<g>
</g>
<g>
</g>
<g>
</g>
<g>
</g>
</svg>
