<?xml version="1.0" encoding="UTF-8" ?>
<!DOCTYPE svg PUBLIC "-//W3C//DTD SVG 1.1//EN" "http://www.w3.org/Graphics/SVG/1.1/DTD/svg11.dtd">
<svg width="100pt" height="99pt" viewBox="0 0 100 99" version="1.1" xmlns="http://www.w3.org/2000/svg">
<g id="#ffffffff">
<path fill="#ffffff" opacity="1.00" d=" M 4.04 0.00 L 73.64 0.00 C 75.49 0.78 77.55 2.05 77.67 4.29 C 77.96 9.49 77.86 14.72 77.73 19.92 C 77.94 22.21 74.60 23.56 73.24 21.68 C 72.08 20.88 72.50 19.30 72.33 18.13 C 72.29 13.88 72.36 9.63 72.34 5.38 C 50.04 5.42 27.75 5.41 5.45 5.39 C 5.46 34.74 5.46 64.08 5.45 93.42 C 15.29 93.46 25.13 93.33 34.97 93.46 C 38.70 92.74 38.81 99.12 35.03 99.00 L 8.38 99.00 C 4.93 99.35 1.25 98.33 0.00 94.83 L 0.00 3.95 C 0.76 2.12 2.19 0.72 4.04 0.00 Z" />
<path fill="#ffffff" opacity="1.00" d=" M 13.36 22.03 C 14.78 18.29 18.88 19.37 22.00 19.26 C 35.76 19.33 49.52 19.17 63.28 19.34 C 64.79 21.13 64.89 24.63 61.88 24.62 C 46.94 24.76 32.00 24.67 17.06 24.67 C 15.20 25.02 14.35 23.19 13.36 22.03 Z" />
<path fill="#ffffff" opacity="1.00" d=" M 37.73 69.01 C 37.10 52.57 51.53 37.57 67.99 37.61 C 84.09 36.63 99.31 50.14 100.00 66.30 L 100.00 70.49 C 99.18 85.44 86.15 98.11 71.29 99.00 L 66.84 99.00 C 51.32 98.29 37.91 84.57 37.73 69.01 M 62.53 43.74 C 50.99 46.60 42.31 58.12 43.36 70.06 C 44.07 83.03 56.08 94.08 69.08 93.59 C 81.93 93.92 93.86 82.94 94.48 70.08 C 95.36 60.29 89.69 50.52 81.03 46.00 C 75.47 42.80 68.71 42.61 62.53 43.74 Z" />
<path fill="#ffffff" opacity="1.00" d=" M 13.68 41.02 C 14.01 40.43 14.66 39.24 14.99 38.64 C 22.67 38.50 30.35 38.44 38.02 38.68 C 38.26 39.27 38.74 40.45 38.98 41.04 C 38.77 41.66 38.35 42.90 38.15 43.52 C 30.40 43.93 22.62 43.80 14.87 43.60 C 14.57 42.95 13.97 41.67 13.68 41.02 Z" />
<path fill="#ffffff" opacity="1.00" d=" M 55.99 51.54 C 64.78 51.49 73.57 51.52 82.35 51.52 C 82.88 58.36 79.25 64.53 74.11 68.73 C 79.34 72.76 82.84 78.97 82.33 85.72 C 73.56 85.72 64.78 85.76 56.00 85.69 C 55.39 78.95 59.07 72.81 64.20 68.74 C 59.18 64.48 55.33 58.38 55.99 51.54 M 69.43 65.47 C 72.21 62.99 75.06 60.40 76.38 56.81 C 71.58 56.75 66.77 56.77 61.96 56.80 C 63.40 60.45 66.07 63.46 69.43 65.47 M 61.88 80.39 C 66.81 80.51 71.74 80.50 76.66 80.39 C 76.49 80.09 76.14 79.50 75.97 79.20 C 74.29 76.39 72.01 74.02 69.54 71.88 C 66.05 73.72 63.55 76.89 61.88 80.39 Z" />
<path fill="#ffffff" opacity="1.00" d=" M 15.05 57.78 C 20.02 57.65 25.01 57.47 29.98 57.82 C 32.54 58.95 31.88 63.01 29.00 63.02 C 24.24 63.31 19.43 63.32 14.70 62.63 C 14.45 61.99 13.96 60.69 13.71 60.05 C 14.04 59.48 14.71 58.34 15.05 57.78 Z" />
<path fill="#ffffff" opacity="1.00" d=" M 13.40 80.04 C 14.22 78.68 14.93 76.42 16.96 76.73 C 21.29 76.74 25.64 76.55 29.96 76.86 C 32.04 78.00 32.28 81.26 29.77 82.01 C 25.50 82.29 21.21 82.11 16.94 82.12 C 15.36 82.44 14.52 80.78 13.40 80.04 Z" />
</g>
</svg>
