<?xml version="1.0" encoding="UTF-8" ?>
<!DOCTYPE svg PUBLIC "-//W3C//DTD SVG 1.1//EN" "http://www.w3.org/Graphics/SVG/1.1/DTD/svg11.dtd">
<svg width="84pt" height="82pt" viewBox="0 0 84 82" version="1.1" xmlns="http://www.w3.org/2000/svg">
<g id="#ffffffff">
<path fill="#ffffff" opacity="1.00" d=" M 0.00 18.28 C 0.77 15.03 3.48 12.03 7.05 12.28 C 28.72 12.18 50.40 12.30 72.07 12.22 C 74.24 12.29 76.67 12.08 78.49 13.52 C 80.94 15.40 81.52 18.65 81.60 21.55 C 54.40 21.65 27.20 21.59 0.00 21.58 L 0.00 18.28 Z" />
<path fill="#ffffff" opacity="1.00" d=" M 0.00 31.50 C 27.14 31.50 54.27 31.50 81.41 31.50 C 81.41 41.69 81.42 51.87 81.42 62.05 C 81.60 66.04 78.31 70.19 74.06 69.73 C 51.78 69.76 29.50 69.76 7.23 69.73 C 3.64 70.03 0.86 67.08 0.00 63.83 L 0.00 31.50 M 49.38 41.55 C 45.70 43.09 42.93 46.92 43.35 51.01 C 43.21 55.58 47.14 59.23 51.31 60.29 C 54.16 60.78 56.92 58.45 59.76 59.75 C 64.29 61.75 69.18 58.32 71.22 54.34 C 72.50 50.61 71.87 45.95 68.57 43.45 C 65.91 40.36 61.52 41.10 57.98 41.69 C 55.12 41.60 52.20 40.61 49.38 41.55 M 10.86 55.48 C 13.25 55.45 15.63 55.45 18.01 55.42 C 18.41 54.81 19.19 53.61 19.59 53.00 C 19.18 52.40 18.38 51.18 17.97 50.57 C 15.61 50.51 13.25 50.50 10.88 50.48 C 9.23 52.08 9.11 53.91 10.86 55.48 M 25.14 50.88 C 23.39 51.89 23.82 55.23 25.97 55.42 C 28.47 55.27 31.76 56.42 33.45 53.99 C 34.30 49.40 27.92 50.17 25.14 50.88 Z" />
<path fill="#ffffff" opacity="1.00" d=" M 61.56 45.78 C 66.51 44.66 69.18 52.78 64.52 54.77 C 60.92 57.54 55.39 52.00 58.14 48.40 C 58.88 47.08 60.08 46.14 61.56 45.78 Z" />
<path fill="#ffffff" opacity="1.00" d=" M 48.15 50.07 C 48.12 47.22 51.16 45.95 53.55 45.63 C 52.67 48.99 52.60 52.34 53.64 55.68 C 50.78 55.55 47.49 53.30 48.15 50.07 Z" />
</g>
</svg>
